{
  "scan": {
    "analysis": {
      "0": {
        "algorithm": "OccupancyAnalysis",
        "config": {
          "createMask": true
        }
      },
      "1": {
        "algorithm": "TagAnalysis"
      },
      "2": {
        "algorithm": "TotAnalysis",
        "config": {}
      },
      "n_count": 3
    },
    "histogrammer": {
      "0": {
        "algorithm": "OccupancyMap",
        "config": {}
      },
      "1": {
        "algorithm": "TotMap",
        "config": {}
      },
      "2": {
        "algorithm": "Tot2Map",
        "config": {}
      },
      "3": {
        "algorithm": "TagDist",
        "config": {}
      },
      "4": {
        "algorithm": "TagMap",
        "config": {}
      },
      "5": {
        "algorithm": "HitsPerEvent",
        "config": {}
      },
      "6": {
        "algorithm": "DataArchiver",
        "config": {}
      },
      "n_count": 5
    },
    "loops": [
      {
        "config": {
          "max": 64,
          "min": 0,
          "step": 1
        },
        "loopAction": "Rd53bParMaskLoop"
      },
      {
        "config": {
          "max": 50,
          "min": 0,
          "step": 1,
          "nSteps": 5
        },
        "loopAction": "Rd53bCoreColLoop"
      },
      {
        "config": {
          "count": 100,
          "delay": 58,
          "extTrigger": false,
          "frequency": 5000,
          "noInject": false,
          "time": 0,
          "edgeMode": true,
          "edgeDuration": 20
        },
        "loopAction": "Rd53bTriggerLoop"
      },
      {
        "loopAction": "StdDataLoop"
      }
    ],
    "name": "DigitalScan",
    "prescan": {
        "InjVcalMed": 200,
        "InjVcalHigh": 2000,
        "InjDigEn": 1,
        "Latency": 60
    }
  }
}
